…
What can the `gutenbergr` package do?

``` r
?gutenbergr
```

When we look at the help, there are some functions native to this
package for browsing the collection of books.

``` r
gutenberg_metadata
```

    ## # A tibble: 69,199 × 8
    ##    gutenberg_id title              author guten…¹ langu…² guten…³ rights has_t…⁴
    ##           <int> <chr>              <chr>    <int> <chr>   <chr>   <chr>  <lgl>  
    ##  1            1 "The Declaration … Jeffe…    1638 en      Politi… Publi… TRUE   
    ##  2            2 "The United State… Unite…       1 en      Politi… Publi… TRUE   
    ##  3            3 "John F. Kennedy'… Kenne…    1666 en      <NA>    Publi… TRUE   
    ##  4            4 "Lincoln's Gettys… Linco…       3 en      US Civ… Publi… TRUE   
    ##  5            5 "The United State… Unite…       1 en      United… Publi… TRUE   
    ##  6            6 "Give Me Liberty … Henry…       4 en      Americ… Publi… TRUE   
    ##  7            7 "The Mayflower Co… <NA>        NA en      <NA>    Publi… TRUE   
    ##  8            8 "Abraham Lincoln'… Linco…       3 en      US Civ… Publi… TRUE   
    ##  9            9 "Abraham Lincoln'… Linco…       3 en      US Civ… Publi… TRUE   
    ## 10           10 "The King James V… <NA>        NA en      Banned… Publi… TRUE   
    ## # … with 69,189 more rows, and abbreviated variable names ¹​gutenberg_author_id,
    ## #   ²​language, ³​gutenberg_bookshelf, ⁴​has_text

``` r
gutenberg_authors
```

    ## # A tibble: 21,323 × 7
    ##    gutenberg_author_id author              alias birth…¹ death…² wikip…³ aliases
    ##                  <int> <chr>               <chr>   <int>   <int> <chr>   <chr>  
    ##  1                   1 United States       U.S.…      NA      NA https:… <NA>   
    ##  2                   3 Lincoln, Abraham    <NA>     1809    1865 https:… United…
    ##  3                   4 Henry, Patrick      <NA>     1736    1799 https:… <NA>   
    ##  4                   5 Adam, Paul          <NA>     1849    1931 https:… <NA>   
    ##  5                   7 Carroll, Lewis      Dodg…    1832    1898 https:… <NA>   
    ##  6                   8 United States. Cen… <NA>       NA      NA https:… Agency…
    ##  7                   9 Melville, Herman    Melv…    1819    1891 https:… <NA>   
    ##  8                  10 Barrie, J. M. (Jam… <NA>     1860    1937 https:… Barrie…
    ##  9                  12 Smith, Joseph, Jr.  Smit…    1805    1844 https:… <NA>   
    ## 10                  14 Madison, James      Unit…    1751    1836 https:… <NA>   
    ## # … with 21,313 more rows, and abbreviated variable names ¹​birthdate,
    ## #   ²​deathdate, ³​wikipedia
…
``` r
moby_dick <- gutenberg_download(2701)
```

    ## Determining mirror for Project Gutenberg from https://www.gutenberg.org/robot/harvest

    ## Using mirror http://aleph.gutenberg.org

``` r
moby_dick
```

    ## # A tibble: 21,932 × 2
    ##    gutenberg_id text                
    ##           <int> <chr>               
    ##  1         2701 "MOBY-DICK;"        
    ##  2         2701 ""                  
    ##  3         2701 "or, THE WHALE."    
    ##  4         2701 ""                  
    ##  5         2701 "By Herman Melville"
    ##  6         2701 ""                  
    ##  7         2701 ""                  
    ##  8         2701 ""                  
    ##  9         2701 "CONTENTS"          
    ## 10         2701 ""                  
    ## # … with 21,922 more rows
…
``` r
tidy_moby_dick <- moby_dick %>%
  unnest_tokens(word, text)
```

Now what does our data structure look like?

``` r
tidy_moby_dick
```

    ## # A tibble: 216,928 × 2
    ##    gutenberg_id word     
    ##           <int> <chr>    
    ##  1         2701 moby     
    ##  2         2701 dick     
    ##  3         2701 or       
    ##  4         2701 the      
    ##  5         2701 whale    
    ##  6         2701 by       
    ##  7         2701 herman   
    ##  8         2701 melville 
    ##  9         2701 contents 
    ## 10         2701 etymology
    ## # … with 216,918 more rows
…
*Tokenization* is the process of splitting text into tokens.

This one-token-per-row structure is in contrast to the ways text is
often stored, perhaps as strings or in a document-term matrix.

For tidy text mining, the token that is stored in each row is most often
a single word, but can also be an n-gram, sentence, or paragraph.

Now compare the first and tokenized data. What’s are the differences?

``` r
moby_dick
```

    ## # A tibble: 21,932 × 2
    ##    gutenberg_id text                
    ##           <int> <chr>               
    ##  1         2701 "MOBY-DICK;"        
    ##  2         2701 ""                  
    ##  3         2701 "or, THE WHALE."    
    ##  4         2701 ""                  
    ##  5         2701 "By Herman Melville"
    ##  6         2701 ""                  
    ##  7         2701 ""                  
    ##  8         2701 ""                  
    ##  9         2701 "CONTENTS"          
    ## 10         2701 ""                  
    ## # … with 21,922 more rows

``` r
tidy_moby_dick
```

    ## # A tibble: 216,928 × 2
    ##    gutenberg_id word     
    ##           <int> <chr>    
    ##  1         2701 moby     
    ##  2         2701 dick     
    ##  3         2701 or       
    ##  4         2701 the      
    ##  5         2701 whale    
    ##  6         2701 by       
    ##  7         2701 herman   
    ##  8         2701 melville 
    ##  9         2701 contents 
    ## 10         2701 etymology
    ## # … with 216,918 more rows

What happened in the `unnest_tokens()` function?

``` r
moby_dick
```

    ## # A tibble: 21,932 × 2
    ##    gutenberg_id text                
    ##           <int> <chr>               
    ##  1         2701 "MOBY-DICK;"        
    ##  2         2701 ""                  
    ##  3         2701 "or, THE WHALE."    
    ##  4         2701 ""                  
    ##  5         2701 "By Herman Melville"
    ##  6         2701 ""                  
    ##  7         2701 ""                  
    ##  8         2701 ""                  
    ##  9         2701 "CONTENTS"          
    ## 10         2701 ""                  
    ## # … with 21,922 more rows

``` r
moby_dick %>%
  unnest_tokens(word, text)
```

    ## # A tibble: 216,928 × 2
    ##    gutenberg_id word     
    ##           <int> <chr>    
    ##  1         2701 moby     
    ##  2         2701 dick     
    ##  3         2701 or       
    ##  4         2701 the      
    ##  5         2701 whale    
    ##  6         2701 by       
    ##  7         2701 herman   
    ##  8         2701 melville 
    ##  9         2701 contents 
    ## 10         2701 etymology
    ## # … with 216,918 more rows
…
We can also ask R to `count()` the elements in the column for us.

What do we see here? What do we have to pass to the `count()` function?

``` r
tidy_moby_dick %>% 
  count(word)
```

    ## # A tibble: 17,868 × 2
    ##    word            n
    ##    <chr>       <int>
    ##  1 _a              6
    ##  2 _advancing_     2
    ##  3 _ahab           4
    ##  4 _algerine       1
    ##  5 _alive_         1
    ##  6 _all_           1
    ##  7 _am_            1
    ##  8 _anglo          1
    ##  9 _apology        1
    ## 10 _are_           1
    ## # … with 17,858 more rows
…
There’s a parameter in `sort()` that is by default set to `FALSE`, i.e.,
if we do not tell the function `count()` explicitly,
`count(sort = TRUE)`, it will assume that it should NOT sort the count.

So what happens if we set `sort = TRUE`?

``` r
tidy_moby_dick %>% 
  count(word, sort = TRUE)
```

    ## # A tibble: 17,868 × 2
    ##    word      n
    ##    <chr> <int>
    ##  1 the   14523
    ##  2 of     6624
    ##  3 and    6447
    ##  4 a      4720
    ##  5 to     4627
    ##  6 in     4181
    ##  7 that   2974
    ##  8 his    2530
    ##  9 it     2418
    ## 10 i      1988
    ## # … with 17,858 more rows

That’s interesting, perhaps we want to save the results into a new data
frame that we can call by a new variable name.

``` r
moby_dick_word_counts <- tidy_moby_dick %>% 
  count(word, sort = TRUE)
moby_dick_word_counts
```

    ## # A tibble: 17,868 × 2
    ##    word      n
    ##    <chr> <int>
    ##  1 the   14523
    ##  2 of     6624
    ##  3 and    6447
    ##  4 a      4720
    ##  5 to     4627
    ##  6 in     4181
    ##  7 that   2974
    ##  8 his    2530
    ##  9 it     2418
    ## 10 i      1988
    ## # … with 17,858 more rows
…
``` r
length(tidy_moby_dick$word)
```

    ## [1] 216928

Now we can use the total number of words as our denominator and we can
extend our data frame by adding a new column.

``` r
moby_dick_word_count$frequency <- moby_dick_word_count$n / length(tidy_moby_dick$word) * 100
moby_dick_word_count
```

    ## # A tibble: 17,868 × 3
    ##    word      n frequency
    ##    <chr> <int>     <dbl>
    ##  1 the   14523     6.69 
    ##  2 of     6624     3.05 
    ##  3 and    6447     2.97 
    ##  4 a      4720     2.18 
    ##  5 to     4627     2.13 
    ##  6 in     4181     1.93 
    ##  7 that   2974     1.37 
    ##  8 his    2530     1.17 
    ##  9 it     2418     1.11 
    ## 10 i      1988     0.916
    ## # … with 17,858 more rows
…
- TTR = (number of types/number of tokens), or
- TTR = (number of types/number of tokens) \* 100 (as a percentage)

TTR allows us to measure vocabulary variation between corpora: the
closer the result is to 1 (or 100%), the greater the vocabulary
variation.

Here’s our tidy data.

``` r
tidy_moby_dick
```

    ## # A tibble: 216,928 × 2
    ##    gutenberg_id word     
    ##           <int> <chr>    
    ##  1         2701 moby     
    ##  2         2701 dick     
    ##  3         2701 or       
    ##  4         2701 the      
    ##  5         2701 whale    
    ##  6         2701 by       
    ##  7         2701 herman   
    ##  8         2701 melville 
    ##  9         2701 contents 
    ## 10         2701 etymology
    ## # … with 216,918 more rows
…
- <https://pudding.cool/projects/vocabulary/index.html>

# Comparing vocabulary between corpora

Now let’s compare the vocabulary range of Melville with, say, Jane
Austin.

This should get you started.

``` r
sense_sensibility <- gutenberg_download(161)
sense_sensibility
```

    ## # A tibble: 12,673 × 2
    ##    gutenberg_id text                   
    ##           <int> <chr>                  
    ##  1          161 "[Illustration]"       
    ##  2          161 ""                     
    ##  3          161 ""                     
    ##  4          161 ""                     
    ##  5          161 ""                     
    ##  6          161 "Sense and Sensibility"
    ##  7          161 ""                     
    ##  8          161 "by Jane Austen"       
    ##  9          161 ""                     
    ## 10          161 "(1811)"               
    ## # … with 12,663 more rows
…
Let’s compare the (relative) frequencies of pronouns between texts for
the pronouns “he” and “she”.

Start first by calculating their normalized frequencies. Choose an
appropriate normalization base.

Next, filter for all relevant pronouns (e.g. with the notation %in% c(…)
or other filter options). Hint:

``` r
tidy_moby_dick %>% filter(word %in% c('he', 'his'))
```

    ## # A tibble: 4,306 × 2
    ##    gutenberg_id word 
    ##           <int> <chr>
    ##  1         2701 his  
    ##  2         2701 he   
    ##  3         2701 his  
    ##  4         2701 he   
    ##  5         2701 his  
    ##  6         2701 he   
    ##  7         2701 his  
    ##  8         2701 his  
    ##  9         2701 he   
    ## 10         2701 his  
    ## # … with 4,296 more rows
…
For comparison, load another text, pre-process it, and calculate the
normalized frequency of the two sets of pronouns.

# Ngrams

The `unnest_tokens()` function also takes other types tokenizations.

``` r
moby_dick_bigrams <- moby_dick %>%
  unnest_tokens(bigram, text, token = "ngrams", n = 2)
moby_dick_bigrams
```

    ## # A tibble: 201,317 × 2
    ##    gutenberg_id bigram         
    ##           <int> <chr>          
    ##  1         2701 moby dick      
    ##  2         2701 <NA>           
    ##  3         2701 or the         
    ##  4         2701 the whale      
    ##  5         2701 <NA>           
    ##  6         2701 by herman      
    ##  7         2701 herman melville
    ##  8         2701 <NA>           
    ##  9         2701 <NA>           
    ## 10         2701 <NA>           
    ## # … with 201,307 more rows

``` r
moby_dick_bigrams %>% count(bigram, sort = TRUE)
```

    ## # A tibble: 107,359 × 2
    ##    bigram        n
    ##    <chr>     <int>
    ##  1 <NA>       3300
    ##  2 of the     1778
    ##  3 in the     1115
    ##  4 to the      701
    ##  5 from the    410
    ##  6 of his      355
    ##  7 and the     351
    ##  8 on the      340
    ##  9 the whale   329
    ## 10 of a        322
    ## # … with 107,349 more rows

``` r
moby_dick_bigrams <- moby_dick_bigrams %>%
  separate(bigram, c("word1", "word2"), sep = " ")

moby_dick_bigrams_counts <- moby_dick_bigrams %>% count(word1, word2, sort = TRUE)

moby_dick_bigrams_counts
```

    ## # A tibble: 107,359 × 3
    ##    word1 word2     n
    ##    <chr> <chr> <int>
    ##  1 <NA>  <NA>   3300
    ##  2 of    the    1778
    ##  3 in    the    1115
    ##  4 to    the     701
    ##  5 from  the     410
    ##  6 of    his     355
    ##  7 and   the     351
    ##  8 on    the     340
    ##  9 the   whale   329
    ## 10 of    a       322
    ## # … with 107,349 more rows

# Sentiment analysis

``` r
library(textdata)
library(tidytext)
library(janeaustenr)
sentiments
```

    ## # A tibble: 6,786 × 2
    ##    word        sentiment
    ##    <chr>       <chr>    
    ##  1 2-faces     negative 
    ##  2 abnormal    negative 
    ##  3 abolish     negative 
    ##  4 abominable  negative 
    ##  5 abominably  negative 
    ##  6 abominate   negative 
    ##  7 abomination negative 
    ##  8 abort       negative 
    ##  9 aborted     negative 
    ## 10 aborts      negative 
    ## # … with 6,776 more rows

``` r
get_sentiments("afinn")
```

    ## # A tibble: 2,477 × 2
    ##    word       value
    ##    <chr>      <dbl>
    ##  1 abandon       -2
    ##  2 abandoned     -2
    ##  3 abandons      -2
    ##  4 abducted      -2
    ##  5 abduction     -2
    ##  6 abductions    -2
    ##  7 abhor         -3
    ##  8 abhorred      -3
    ##  9 abhorrent     -3
    ## 10 abhors        -3
    ## # … with 2,467 more rows
…
``` r
nrcjoy <- get_sentiments("nrc") %>%
  filter(sentiment == "joy")

tidy_books %>%
  filter(book == "Emma") %>% inner_join(nrcjoy) %>% 
  count(word, sort = TRUE)
```

    ## Joining, by = "word"

    ## # A tibble: 301 × 2
    ##    word          n
    ##    <chr>     <int>
    ##  1 good        359
    ##  2 friend      166
    ##  3 hope        143
    ##  4 happy       125
    ##  5 love        117
    ##  6 deal         92
    ##  7 found        92
    ##  8 present      89
    ##  9 kind         82
    ## 10 happiness    76
    ## # … with 291 more rows
…
